<?xml version="1.0" encoding="UTF-8" standalone="no"?>
<svg
   xmlns:dc="http://purl.org/dc/elements/1.1/"
   xmlns:cc="http://creativecommons.org/ns#"
   xmlns:rdf="http://www.w3.org/1999/02/22-rdf-syntax-ns#"
   xmlns:svg="http://www.w3.org/2000/svg"
   xmlns="http://www.w3.org/2000/svg"
   xmlns:sodipodi="http://sodipodi.sourceforge.net/DTD/sodipodi-0.dtd"
   xmlns:inkscape="http://www.inkscape.org/namespaces/inkscape"
   class="zetQK"
   style="animation-delay: 0s; animation-direction: normal; animation-duration: 0s; animation-fill-mode: none; animation-iteration-count: 1; animation-name: none; animation-play-state: running; animation-timing-function: ease; background-attachment: scroll; background-blend-mode: normal; background-clip: border-box; background-color: rgba(0, 0, 0, 0); background-image: none; background-origin: padding-box; background-position: 0% 0%; background-repeat: repeat; background-size: auto; border-bottom-color: rgb(0, 0, 0); border-bottom-left-radius: 0px; border-bottom-right-radius: 0px; border-bottom-style: none; border-bottom-width: 0px; border-collapse: separate; border-image-outset: 0px; border-image-repeat: stretch; border-image-slice: 100%; border-image-source: none; border-image-width: 1; border-left-color: rgb(0, 0, 0); border-left-style: none; border-left-width: 0px; border-right-color: rgb(0, 0, 0); border-right-style: none; border-right-width: 0px; border-top-color: rgb(0, 0, 0); border-top-left-radius: 0px; border-top-right-radius: 0px; border-top-style: none; border-top-width: 0px; bottom: auto; box-shadow: none; box-sizing: content-box; break-after: auto; break-before: auto; break-inside: auto; caption-side: top; clear: none; clip: auto; color: rgb(0, 0, 0); content: normal; cursor: auto; direction: ltr; display: block; empty-cells: show; float: none; font-family: &quot;Shopify Sans Web&quot;, Roboto, &quot;Segoe UI&quot;, &quot;Helvetica Neue&quot;, sans-serif; font-kerning: auto; font-optical-sizing: auto; font-size: 14px; font-stretch: 100%; font-style: normal; font-variant: normal; font-variant-ligatures: normal; font-variant-caps: normal; font-variant-numeric: normal; font-variant-east-asian: normal; font-weight: 400; height: 454.388px; image-orientation: from-image; image-rendering: auto; isolation: auto; justify-items: normal; justify-self: auto; left: auto; letter-spacing: normal; line-height: 20px; list-style-image: none; list-style-position: outside; list-style-type: disc; margin-bottom: 0px; margin-left: 0px; margin-right: 0px; margin-top: 0px; max-height: 700px; max-width: 700px; min-height: 0px; min-width: 0px; mix-blend-mode: normal; object-fit: fill; object-position: 50% 50%; offset-distance: 0px; offset-path: none; offset-rotate: auto 0deg; opacity: 1; orphans: 2; outline-color: rgb(0, 0, 0); outline-offset: 0px; outline-style: none; outline-width: 0px; overflow-anchor: auto; overflow-wrap: normal; overflow-x: hidden; overflow-y: hidden; padding-bottom: 0px; padding-left: 0px; padding-right: 0px; padding-top: 0px; pointer-events: auto; position: static; resize: none; right: auto; scroll-behavior: auto; speak: normal; table-layout: auto; tab-size: 8; text-align: center; text-align-last: auto; text-decoration: none solid rgb(0, 0, 0); text-decoration-line: none; text-decoration-style: solid; text-decoration-color: rgb(0, 0, 0); text-decoration-skip-ink: auto; text-underline-position: auto; text-indent: 0px; text-rendering: optimizelegibility; text-shadow: none; text-size-adjust: 100%; text-overflow: clip; text-transform: none; top: auto; touch-action: auto; transition-delay: 0s; transition-duration: 0s; transition-property: all; transition-timing-function: ease; unicode-bidi: normal; vertical-align: baseline; visibility: visible; white-space: normal; widows: 2; width: 454.388px; will-change: auto; word-break: normal; word-spacing: 0px; z-index: auto; zoom: 1; -webkit-appearance: none; backface-visibility: visible; -webkit-border-horizontal-spacing: 0px; -webkit-border-image: none; -webkit-border-vertical-spacing: 0px; -webkit-box-align: stretch; -webkit-box-decoration-break: slice; -webkit-box-direction: normal; -webkit-box-flex: 0; -webkit-box-ordinal-group: 1; -webkit-box-orient: horizontal; -webkit-box-pack: start; -webkit-box-reflect: none; column-count: auto; column-gap: normal; column-rule-color: rgb(0, 0, 0); column-rule-style: none; column-rule-width: 0px; column-span: none; column-width: auto; backdrop-filter: none; align-content: normal; align-items: normal; align-self: auto; flex-basis: auto; flex-grow: 0; flex-shrink: 1; flex-direction: row; flex-wrap: nowrap; justify-content: normal; -webkit-font-smoothing: antialiased; grid-auto-columns: auto; grid-auto-flow: row; grid-auto-rows: auto; grid-column-end: auto; grid-column-start: auto; grid-template-areas: none; grid-template-columns: none; grid-template-rows: none; grid-row-end: auto; grid-row-start: auto; row-gap: normal; -webkit-highlight: none; hyphens: manual; -webkit-hyphenate-character: auto; -webkit-line-break: auto; -webkit-line-clamp: none; -webkit-locale: &quot;en&quot;; -webkit-mask-box-image: none; -webkit-mask-box-image-outset: 0px; -webkit-mask-box-image-repeat: stretch; -webkit-mask-box-image-slice: 0 fill; -webkit-mask-box-image-source: none; -webkit-mask-box-image-width: auto; -webkit-mask-clip: border-box; -webkit-mask-composite: source-over; -webkit-mask-image: none; -webkit-mask-origin: border-box; -webkit-mask-position: 0% 0%; -webkit-mask-repeat: repeat; -webkit-mask-size: auto; order: 0; perspective: none; perspective-origin: 227.188px 227.188px; -webkit-print-color-adjust: economy; -webkit-rtl-ordering: logical; shape-outside: none; shape-image-threshold: 0; shape-margin: 0px; -webkit-tap-highlight-color: rgba(0, 0, 0, 0.18); -webkit-text-combine: none; -webkit-text-decorations-in-effect: none; -webkit-text-emphasis-color: rgb(0, 0, 0); -webkit-text-emphasis-position: over right; -webkit-text-emphasis-style: none; -webkit-text-fill-color: rgb(0, 0, 0); -webkit-text-orientation: vertical-right; -webkit-text-security: none; -webkit-text-stroke-color: rgb(0, 0, 0); -webkit-text-stroke-width: 0px; transform: none; transform-origin: 227.194px 227.194px; transform-style: flat; -webkit-user-drag: auto; -webkit-user-modify: read-only; user-select: auto; -webkit-writing-mode: horizontal-tb; -webkit-app-region: none; buffered-rendering: auto; clip-path: none; clip-rule: nonzero; mask: none; filter: none; flood-color: rgb(0, 0, 0); flood-opacity: 1; lighting-color: rgb(255, 255, 255); stop-color: rgb(0, 0, 0); stop-opacity: 1; color-interpolation: srgb; color-interpolation-filters: linearrgb; color-rendering: auto; fill: rgb(0, 0, 0); fill-opacity: 1; fill-rule: nonzero; marker-end: none; marker-mid: none; marker-start: none; mask-type: luminance; shape-rendering: auto; stroke: none; stroke-dasharray: none; stroke-dashoffset: 0px; stroke-linecap: butt; stroke-linejoin: miter; stroke-miterlimit: 4; stroke-opacity: 1; stroke-width: 1px; alignment-baseline: auto; baseline-shift: 0px; dominant-baseline: auto; text-anchor: start; writing-mode: horizontal-tb; vector-effect: none; paint-order: normal; d: none; cx: 0px; cy: 0px; x: 0px; y: 0px; r: 0px; rx: auto; ry: auto; caret-color: rgb(0, 0, 0); line-break: auto;"
   version="1.1"
   mask="none"
   clip-path="none"
   id="svg18"
   sodipodi:docname="pommalabs-logo.transparent.svg"
   inkscape:version="0.92.4 (5da689c313, 2019-01-14)">
  <metadata
     id="metadata24">
    <rdf:RDF>
      <cc:Work
         rdf:about="">
        <dc:format>image/svg+xml</dc:format>
        <dc:type
           rdf:resource="http://purl.org/dc/dcmitype/StillImage" />
        <dc:title></dc:title>
      </cc:Work>
    </rdf:RDF>
  </metadata>
  <defs
     id="defs22" />
  <sodipodi:namedview
     pagecolor="#ffffff"
     bordercolor="#666666"
     borderopacity="1"
     objecttolerance="10"
     gridtolerance="10"
     guidetolerance="10"
     inkscape:pageopacity="0"
     inkscape:pageshadow="2"
     inkscape:window-width="1600"
     inkscape:window-height="821"
     id="namedview20"
     showgrid="false"
     inkscape:zoom="2.36"
     inkscape:cx="50"
     inkscape:cy="50"
     inkscape:window-x="-9"
     inkscape:window-y="-9"
     inkscape:window-maximized="1"
     inkscape:current-layer="root" />
  <style
     type="text/css"
     id="style2">.zetQK, .zetQK svg { max-width: 700px; max-height: 700px; }
:not(svg) { box-sizing: inherit; }
svg:not(:root) { overflow: hidden; display: block; }</style>
  <svg
     viewBox="0 0 160 160"
     version="1.1"
     id="svg_null">
    <g
       id="root"
       stroke="none"
       stroke-width="1"
       fill="none"
       fill-rule="evenodd">
      <rect
         id="background.secondary"
         fill="#10316b"
         x="0"
         y="0"
         width="160"
         height="160"
         style="fill:#000000;fill-opacity:0" />
      <rect
         id="icon.primary"
         x="70"
         y="59"
         width="20"
         height="20"
         display="none"
         fill="#fdbe34" />
      <svg
         viewBox="0 0 26 26"
         version="1.1"
         fill="#fdbe34"
         id="svg_icon.primary"
         x="70"
         y="59"
         width="20"
         height="20">
        <g
           id="surface1"
           fill="#fdbe34">
          <path
             style=" "
             d="M 22.5 13.5 C 22 11.5 20.101563 10.601563 20.101563 10.601563 C 20.101563 10.601563 22.199219 9.398438 24.5 9.601563 C 23 7 20.199219 8.398438 20.199219 8.398438 C 20.199219 8.398438 21.101563 7.699219 21.101563 6.398438 C 21 3.601563 16.800781 1 16.398438 1 C 16 1 16.398438 2.199219 15.101563 2.300781 C 14.101563 2.398438 13.101563 0.699219 12.601563 0.699219 C 12 0.699219 12.699219 2.101563 11.601563 2.101563 C 10.5 2.101563 9.601563 0.5 9.101563 0.5 C 8.601563 0.5 9.800781 2.699219 8.5 2.898438 C 7.300781 3.101563 5.699219 0.199219 5.300781 0.199219 C 4.699219 0.199219 4.800781 8 9.898438 8 C 10.898438 8 12.300781 7.300781 12.300781 7.300781 C 12.300781 7.300781 5.398438 12.601563 4 15.101563 C 4.800781 20.101563 11.300781 25.898438 16.601563 25.898438 C 17 24.898438 17.898438 20.398438 18 19.300781 C 17.300781 19.300781 15 18.800781 15 16.300781 C 15 14.199219 17.601563 12.601563 17.601563 12.601563 C 16.898438 13.300781 16.199219 14.800781 16.199219 16 C 16.199219 17.101563 17.199219 18 18.199219 18 C 19.601563 18 20.398438 17.199219 20.398438 15.898438 C 20.398438 14.800781 19.699219 12.699219 19.699219 12.699219 C 19.699219 12.699219 21.5 12.699219 22.5 13.5 Z M 16 10.101563 C 15.398438 10.101563 14.898438 9.601563 14.898438 9 C 14.898438 8.398438 15.398438 7.898438 16 7.898438 C 16.601563 7.898438 17.101563 8.398438 17.101563 9 C 17.101563 9.601563 16.601563 10.101563 16 10.101563 Z "
             fill="#fdbe34"
             id="path6" />
        </g>
      </svg>
      <g
         id="group"
         transform="translate(12.000000, 81.000000)">
        <rect
           id="Rectangle"
           x="0"
           y="2"
           width="136"
           height="18" />
        <text
           id="headerText.primary"
           font-family="Saira"
           font-size="18"
           font-weight="500"
           letter-spacing=".81"
           fill="#fdbe34"
           data-text-alignment="C"
           font-style="normal">
          <tspan
             x="13.0625"
             y="17"
             id="tspan11">PommaLabs</tspan>
        </text>
      </g>
      <path
         d="M92 75l36 0l0 2l-36 0l0 -2zm-60 0l36 0l0 2l-36 0l0 -2z"
         id="shape.primary"
         fill="#fdbe34" />
    </g>
  </svg>
</svg>
